\relax 
\citation{koren}
\@writefile{toc}{\contentsline {section}{\numberline {I}Dataset}{1}}
\@writefile{lof}{\contentsline {figure}{\numberline {1}{\ignorespaces The structure of MovieLens dataset. }}{1}}
\newlabel{fig1}{{1}{1}}
\@writefile{lof}{\contentsline {figure}{\numberline {2}{\ignorespaces {\it  Left To Right}: Distribution of Rating, Distribution of User Average Rating, Distribution of Movie Average Rating. }}{1}}
\newlabel{fig2}{{2}{1}}
\@writefile{toc}{\contentsline {section}{\numberline {II}Methodology}{1}}
\@writefile{toc}{\contentsline {subsection}{\numberline {\unhbox \voidb@x \hbox {II-A}}Notations}{1}}
\@writefile{toc}{\contentsline {subsection}{\numberline {\unhbox \voidb@x \hbox {II-B}}Parameter selection}{1}}
\@writefile{toc}{\contentsline {subsection}{\numberline {\unhbox \voidb@x \hbox {II-C}}Baseline Model}{1}}
\newlabel{eq1}{{1}{1}}
\newlabel{eq2}{{2}{1}}
\citation{item}
\citation{koren}
\citation{lesson}
\citation{koren}
\@writefile{loa}{\contentsline {algocf}{\numberline {1}{\ignorespaces Baseline model algorithm}}{2}}
\newlabel{alg1}{{1}{2}}
\@writefile{toc}{\contentsline {subsection}{\numberline {\unhbox \voidb@x \hbox {II-D}}Global neighborhood (GN) model}{2}}
\@writefile{toc}{\contentsline {subsubsection}{\numberline {\unhbox \voidb@x \hbox {II-D}1}Neighborhood model}{2}}
\newlabel{eq3}{{3}{2}}
\newlabel{eq4}{{4}{2}}
\@writefile{toc}{\contentsline {subsubsection}{\numberline {\unhbox \voidb@x \hbox {II-D}2}Implicit feedback}{2}}
\newlabel{eq5}{{5}{2}}
\newlabel{eq6}{{6}{2}}
\newlabel{eq7}{{7}{2}}
\@writefile{loa}{\contentsline {algocf}{\numberline {2}{\ignorespaces GN model algorithm}}{2}}
\newlabel{alg2}{{2}{2}}
\@writefile{toc}{\contentsline {subsection}{\numberline {\unhbox \voidb@x \hbox {II-E}}Singular value decomposition (SVD) model}{2}}
\citation{svd}
\citation{Paterek}
\citation{koren}
\citation{koren}
\citation{koren}
\newlabel{eq8}{{8}{3}}
\newlabel{eq9}{{9}{3}}
\@writefile{loa}{\contentsline {algocf}{\numberline {3}{\ignorespaces SVD model algorithm}}{3}}
\newlabel{alg3}{{3}{3}}
\@writefile{toc}{\contentsline {subsection}{\numberline {\unhbox \voidb@x \hbox {II-F}}Asymmetric-SVD (SVDasym) model}{3}}
\newlabel{eq10}{{10}{3}}
\@writefile{toc}{\contentsline {subsection}{\numberline {\unhbox \voidb@x \hbox {II-G}}SVD++ model}{3}}
\newlabel{eq11}{{11}{3}}
\@writefile{loa}{\contentsline {algocf}{\numberline {4}{\ignorespaces SVDasym model algorithm}}{3}}
\newlabel{alg4}{{4}{3}}
\@writefile{loa}{\contentsline {algocf}{\numberline {5}{\ignorespaces SVD++ model algorithm}}{3}}
\newlabel{alg5}{{5}{3}}
\@writefile{toc}{\contentsline {subsection}{\numberline {\unhbox \voidb@x \hbox {II-H}}An integrated model (SVDGN)}{3}}
\citation{blend}
\citation{elf}
\newlabel{eq9}{{12}{4}}
\@writefile{loa}{\contentsline {algocf}{\numberline {6}{\ignorespaces SVDGN model algorithm}}{4}}
\newlabel{alg6}{{6}{4}}
\@writefile{toc}{\contentsline {subsection}{\numberline {\unhbox \voidb@x \hbox {II-I}}Blending}{4}}
\@writefile{toc}{\contentsline {subsubsection}{\numberline {\unhbox \voidb@x \hbox {II-I}1}Ridge regression}{4}}
\@writefile{toc}{\contentsline {subsubsection}{\numberline {\unhbox \voidb@x \hbox {II-I}2}Neural network}{4}}
\@writefile{toc}{\contentsline {section}{\numberline {III}Result}{4}}
\@writefile{lof}{\contentsline {figure}{\numberline {3}{\ignorespaces Team {\it  1UP+} project progress.}}{4}}
\newlabel{fig3}{{3}{4}}
\bibcite{koren}{1}
\bibcite{item}{2}
\bibcite{lesson}{3}
\bibcite{svd}{4}
\bibcite{Paterek}{5}
\bibcite{blend}{6}
\bibcite{elf}{7}
\@writefile{lot}{\contentsline {table}{\numberline {I}{\ignorespaces The dataset used for the final predication blending.}}{5}}
\newlabel{tab1}{{I}{5}}
\@writefile{toc}{\contentsline {section}{\numberline {IV}Conclusion}{5}}
\@writefile{toc}{\contentsline {section}{References}{5}}
