
{
	"parameter" : 
	{
		"alpha" : 0.50,
		"baseiter" : 15,
		"factor" : 300,
		"gamma0" : 0.0010,
		"gamma1" : 0.050,
		"gamma2" : 0.050,
		"gamma3" : 0.020,
		"lambda0" : 0.010,
		"lambda6" : 0.0020,
		"lambda7" : 0.020,
		"lambda8" : 0.020,
		"maxiter" : 21,
		"probe_iters" : 0,
		"slowrate" : 0.90
	},
	"project" : "svdneighbor_probe_factor300_g1E0p05_g2E0p05_g3E0p02_l6E0p002_l7E0p02_l8E0p02-23010259",
	"rmse" : 
	{
		"prmse" : 0.0,
		"trmse" : 0.4249866833484414
	},
	"train" : 
	{
		"debug" : true,
		"model" : "svdneighbor",
		"probe" : false,
		"tinydata" : 0
	}
}
